1d912987-9dff-4d76-b90f-dac44f5601bd|Лена|Гаврилова|lena.gavrilova2408@mail.ru|qwerty007
db3b2635-424a-4967-be03-be35286c38c2|Ксения|Катаргина|kseniaaa@gmail.com|qwerty
99a66523-c3c8-4379-895b-1d9d03626b72|Далия|Сафина|netlita@gmail.com|qwerty7
141ce86f-e435-4e6a-86bc-e6e82609999f|Яна|Негина|stopapup@gmail.com|qwerty07
bcde4c55-284d-432c-a0a4-cb0d83ba6fa3|Лена|Гаврилова|lena.gavrilova2408@mail.ru|qwerty007
e7f87775-46a3-4b9d-b6c8-4e0067f2c6cf|Ксения|Катаргина|kseniaaa@gmail.com|qwerty
58c18bb2-56f9-4eb8-abc1-6bda19cc6dc1|Илья|Ивлев|snek@gmail.com|qwerty00
3a18e64a-1cd3-444e-a74d-545552cd60cf|Айрина|Латыпова|airimairi@gmail.com|qwerty0
fc42b895-021d-4e04-88e3-06bcdcbf911b|Далия|Сафина|netlita@gmail.com|qwerty7
003f88a5-bbdf-48e6-b0e0-8704013428de|Яна|Негина|stopapup@gmail.com|qwerty0726ad740a-766b-444a-8860-60f63fcfaf2a|Айри|Майри|newmail@gmail.ru|qazwsx

User[id = 26ad740a-766b-444a-8860-60f63fcfaf2a, firstName = 'Айри', lastName = 'Майри', email = 'newmail@gmail.ru', password = 'qazwsx ']